…
## Notes on data review:

### Date column in all datasets is set to chr not a date/time format.

### Clean and rename columns before data type change

## change columns to all lower case

``` r
clean_names(daily_activity)
```

    ## # A tibble: 940 × 15
    ##            id activity_date total_steps total_distance tracker_distance
    ##         <dbl> <chr>               <dbl>          <dbl>            <dbl>
    ##  1 1503960366 4/12/16             13162           8.5              8.5 
    ##  2 1503960366 4/13/16             10735           6.97             6.97
    ##  3 1503960366 4/14/16             10460           6.74             6.74
    ##  4 1503960366 4/15/16              9762           6.28             6.28
    ##  5 1503960366 4/16/16             12669           8.16             8.16
    ##  6 1503960366 4/17/16              9705           6.48             6.48
    ##  7 1503960366 4/18/16             13019           8.59             8.59
    ##  8 1503960366 4/19/16             15506           9.88             9.88
    ##  9 1503960366 4/20/16             10544           6.68             6.68
    ## 10 1503960366 4/21/16              9819           6.34             6.34
    ## # … with 930 more rows, and 10 more variables:
    ## #   logged_activities_distance <dbl>, very_active_distance <dbl>,
    ## #   moderately_active_distance <dbl>, light_active_distance <dbl>,
    ## #   sedentary_active_distance <dbl>, very_active_minutes <dbl>,
    ## #   fairly_active_minutes <dbl>, lightly_active_minutes <dbl>,
    ## #   sedentary_minutes <dbl>, calories <dbl>

``` r
daily_activity<- rename_with(daily_activity, tolower)
clean_names(daily_calories)
```

    ## # A tibble: 940 × 3
    ##            id activity_day calories
    ##         <dbl> <chr>           <dbl>
    ##  1 1503960366 4/12/2016        1985
    ##  2 1503960366 4/13/2016        1797
    ##  3 1503960366 4/14/2016        1776
    ##  4 1503960366 4/15/2016        1745
    ##  5 1503960366 4/16/2016        1863
    ##  6 1503960366 4/17/2016        1728
    ##  7 1503960366 4/18/2016        1921
    ##  8 1503960366 4/19/2016        2035
    ##  9 1503960366 4/20/2016        1786
    ## 10 1503960366 4/21/2016        1775
    ## # … with 930 more rows

``` r
daily_calories<- rename_with(daily_calories, tolower)
clean_names(hourly_calories)
```

    ## # A tibble: 22,099 × 3
    ##            id activity_hour         calories
    ##         <dbl> <chr>                    <dbl>
    ##  1 1503960366 4/12/2016 12:00:00 AM       81
    ##  2 1503960366 4/12/2016 1:00:00 AM        61
    ##  3 1503960366 4/12/2016 2:00:00 AM        59
    ##  4 1503960366 4/12/2016 3:00:00 AM        47
    ##  5 1503960366 4/12/2016 4:00:00 AM        48
    ##  6 1503960366 4/12/2016 5:00:00 AM        48
    ##  7 1503960366 4/12/2016 6:00:00 AM        48
    ##  8 1503960366 4/12/2016 7:00:00 AM        47
    ##  9 1503960366 4/12/2016 8:00:00 AM        68
    ## 10 1503960366 4/12/2016 9:00:00 AM       141
    ## # … with 22,089 more rows

``` r
hourly_calories<- rename_with(hourly_calories, tolower)
clean_names(hourly_steps)
```

    ## # A tibble: 22,099 × 3
    ##            id activity_hour         step_total
    ##         <dbl> <chr>                      <dbl>
    ##  1 1503960366 4/12/2016 12:00:00 AM        373
    ##  2 1503960366 4/12/2016 1:00:00 AM         160
    ##  3 1503960366 4/12/2016 2:00:00 AM         151
    ##  4 1503960366 4/12/2016 3:00:00 AM           0
    ##  5 1503960366 4/12/2016 4:00:00 AM           0
    ##  6 1503960366 4/12/2016 5:00:00 AM           0
    ##  7 1503960366 4/12/2016 6:00:00 AM           0
    ##  8 1503960366 4/12/2016 7:00:00 AM           0
    ##  9 1503960366 4/12/2016 8:00:00 AM         250
    ## 10 1503960366 4/12/2016 9:00:00 AM        1864
    ## # … with 22,089 more rows

``` r
hourly_steps <- rename_with(hourly_steps, tolower)
clean_names(hourly_intensities)
```

    ## # A tibble: 22,099 × 4
    ##            id activity_hour         total_intensity average_intensity
    ##         <dbl> <chr>                           <dbl>             <dbl>
    ##  1 1503960366 4/12/2016 12:00:00 AM              20             0.333
    ##  2 1503960366 4/12/2016 1:00:00 AM                8             0.133
    ##  3 1503960366 4/12/2016 2:00:00 AM                7             0.117
    ##  4 1503960366 4/12/2016 3:00:00 AM                0             0    
    ##  5 1503960366 4/12/2016 4:00:00 AM                0             0    
    ##  6 1503960366 4/12/2016 5:00:00 AM                0             0    
    ##  7 1503960366 4/12/2016 6:00:00 AM                0             0    
    ##  8 1503960366 4/12/2016 7:00:00 AM                0             0    
    ##  9 1503960366 4/12/2016 8:00:00 AM               13             0.217
    ## 10 1503960366 4/12/2016 9:00:00 AM               30             0.5  
    ## # … with 22,089 more rows
…
